Factores determinantes de la pobreza (2016-2024)
…
# Unir todas las métricas
metricas_rf <- bind_rows(metricas_rf1, metricas_rf2, metricas_rf3, metricas_rf4)

xlsx::write.xlsx(metricas_rf, "salidas/metricas.xlsx", sheetName = "Random forest")

metricas_log <- bind_rows(metricas_log1, metricas_log2, metricas_log3, metricas_log4)

xlsx::write.xlsx(metricas_log, "salidas/metricas.xlsx", sheetName = "Regresión logística", append = TRUE)

metricas_rf

# A tibble: 25 × 10
   tipo        ano_trim modelo base  .estimator precision recall accuracy f_meas
   <chr>       <chr>    <chr>  <chr> <chr>          <dbl>  <dbl>    <dbl>  <dbl>
 1 Entrenamie… 2016-3   Logís… Trai… binary         0.600  0.926    0.841  0.728
 2 Test        2017-1   Logís… Test… binary         0.483  0.851    0.776  0.616
 3 Test        2017-2   Logís… Test… binary         0.522  0.835    0.792  0.642
 4 Test        2017-3   Logís… Test… binary         0.465  0.845    0.788  0.600
 5 Test        2017-4   Logís… Test… binary         0.471  0.856    0.789  0.607
 6 Test        2018-1   Logís… Test… binary         0.458  0.840    0.777  0.593
 7 Test        2018-2   Logís… Test… binary         0.523  0.823    0.796  0.639
 8 Test        2018-3   Logís… Test… binary         0.542  0.838    0.807  0.658
 9 Entrenamie… 2018-4   Logís… Trai… binary         0.479  0.886    0.752  0.622
10 Test        2019-2   Logís… Test… binary         0.436  0.892    0.733  0.586
# ℹ 15 more rows
# ℹ 1 more variable: roc_auc <dbl>

metricas_log

# A tibble: 25 × 10
   tipo        ano_trim modelo base  .estimator precision recall accuracy f_meas
   <chr>       <chr>    <chr>  <chr> <chr>          <dbl>  <dbl>    <dbl>  <dbl>
 1 Entrenamie… 2016-3   Logís… Trai… binary         0.564  0.811    0.811  0.665
 2 Test        2017-1   Logís… Test… binary         0.521  0.828    0.792  0.640
 3 Test        2017-2   Logís… Test… binary         0.548  0.802    0.808  0.651
 4 Test        2017-3   Logís… Test… binary         0.487  0.814    0.803  0.609
 5 Test        2017-4   Logís… Test… binary         0.490  0.810    0.802  0.610
 6 Test        2018-1   Logís… Test… binary         0.480  0.795    0.784  0.599
 7 Test        2018-2   Logís… Test… binary         0.545  0.801    0.807  0.648
 8 Test        2018-3   Logís… Test… binary         0.562  0.800    0.816  0.660
 9 Entrenamie… 2018-4   Logís… Trai… binary         0.525  0.836    0.787  0.645
10 Test        2019-2   Logís… Test… binary         0.492  0.863    0.771  0.627
# ℹ 15 more rows
# ℹ 1 more variable: roc_auc <dbl>
…
